{
  "methodCalls": [
    {
      "class": "\\Mockery",
      "method": "mock",
      "position": 0,
      "mask": "%s|\\Mockery\\MockInterface"
    },
    {
      "class": "\\Nette\\DI\\Container",
      "method": "getByType",
      "position": 0
    },
    {
      "class": "\\Doctrine\\ORM\\EntityManager",
      "method": "find",
      "position": 0
    },
    {
      "class": "\\Doctrine\\ORM\\EntityManager",
      "method": "getReference",
      "position": 0
    }
  ]
}